<?xml version="1.0" encoding="utf-8"?>
<!-- Generator: Adobe Illustrator 21.1.0, SVG Export Plug-In . SVG Version: 6.00 Build 0)  -->
<svg version="1.1" id="Capa_1" xmlns="http://www.w3.org/2000/svg" xmlns:xlink="http://www.w3.org/1999/xlink" x="0px" y="0px"
	 viewBox="0 0 48.4 48.4" style="enable-background:new 0 0 48.4 48.4;" xml:space="preserve">
<style type="text/css">
	.st0{fill:#828282;}
</style>
<g>
	<g>
		<path class="st0" d="M47.4,32c0-0.1-0.1-0.1-0.2-0.2c-0.1,0-0.2-0.1-0.2-0.1c-0.1,0-0.2,0-0.2,0.1S46.6,32,46.6,32
			c0,0.1-0.1,0.2-0.1,0.2s0,0.2,0.1,0.2c0,0.1,0.1,0.1,0.2,0.2c0.1,0,0.2,0.1,0.2,0.1c0.1,0,0.2,0,0.2-0.1c0.1,0,0.1-0.1,0.2-0.2
			c0-0.1,0.1-0.2,0.1-0.2C47.4,32.2,47.4,32.1,47.4,32z M47.1,32.4H47L47,32.3h-0.1v0.2h-0.1V32H47c0,0,0.1,0,0.1,0c0,0,0,0.1,0,0.1
			c0,0,0,0.1-0.1,0.1L47.1,32.4z"/>
	</g>
</g>
<g>
	<g>
		<path class="st0" d="M47,32.1C47,32.1,47,32.1,47,32.1l-0.1,0v0.1L47,32.1C47,32.2,47,32.2,47,32.1C47,32.2,47,32.2,47,32.1
			C47,32.1,47,32.1,47,32.1z"/>
	</g>
</g>
<g>
	<g>
		<path class="st0" d="M33.9,9.7c-3.7,0-7.2,1.4-9.7,3.7c-2.6-2.3-6-3.7-9.7-3.7c0,0-0.1,0-0.1,0C6.4,9.8,0,16.2,0,24.2
			c0,8,6.5,14.5,14.5,14.5c3.7,0,7.1-1.4,9.7-3.7c-0.5-0.5-1-1-1.5-1.6h3c-0.5,0.6-0.9,1.1-1.5,1.6h0c0,0,0,0,0,0c0,0,0,0,0,0
			c2.6,2.3,6,3.8,9.7,3.7c8,0,14.5-6.5,14.5-14.5c0,0,0,0,0,0C48.4,16.2,41.9,9.7,33.9,9.7z M22.9,15h2.8c0.4,0.5,0.8,1,1.1,1.6
			h-4.9C22.2,16,22.5,15.5,22.9,15z M21,18h6.6c0.2,0.5,0.4,1,0.6,1.6h-8C20.3,19.4,20.6,18.8,21,18z M13.7,27.7H12l1-5.4l-2.4,5.4
			H9.1l-0.3-5.3l-1,5.3H6.2l1.3-7h2.7l0.1,4.3l1.9-4.3h2.8L13.7,27.7z M19.8,24.7l-0.4,2l-0.1,0.4l0,0.3l0,0.2l0,0.2h-1.4l0-0.6
			c-0.4,0.5-1,0.7-1.8,0.7c-0.9,0-1.6-0.6-1.6-1.5c0-1.4,1.1-2.2,3-2.2c0.2,0,0.4,0,0.7,0c0-0.2,0.1-0.3,0.1-0.4
			c0-0.4-0.3-0.5-1.1-0.5c-0.5,0-1,0.1-1.4,0.2l-0.2,0.1l-0.1,0l0.2-1.3c0.9-0.2,1.4-0.3,2-0.3c1.5,0,2.3,0.6,2.3,1.7
			C19.9,23.8,19.9,24,19.8,24.7z M23.2,21.9c1.4,0,2.3,0.8,2.3,2.1c0,0.4-0.1,0.8-0.2,1.4h-3.4c0,0.1,0,0.1,0,0.2c0,0.7,0.5,1,1.5,1
			c0.6,0,1.2-0.1,1.8-0.4l-0.3,1.4c-0.6,0.2-1.1,0.2-1.7,0.2c-1.9,0-2.9-0.9-2.9-2.5C20.2,23.3,21.5,21.9,23.2,21.9z M26.8,31.9
			h-5.1c-0.3-0.5-0.6-1-0.9-1.6h6.8C27.4,30.9,27.1,31.4,26.8,31.9z M29.9,23.3c-0.5-0.1-0.9-0.1-1.2-0.1c-0.6,0-0.8,0.2-0.8,0.5
			c0,0.3,0.1,0.3,0.8,0.6c0.9,0.3,1.2,0.8,1.2,1.6c0,1.3-0.8,1.9-2.7,1.9c-0.2,0-0.5,0-0.9,0c-0.2,0-0.4,0-0.5-0.1l-0.3-0.1l-0.1,0
			l0.2-1.3c0.6,0.2,1,0.2,1.6,0.2c0.7,0,1-0.2,1-0.5c0-0.3-0.1-0.3-0.8-0.6C26.5,25,26,24.5,26,23.8c0-1,0.7-1.9,2.6-1.9
			c0.4,0,1.1,0,1.5,0.1L29.9,23.3z M32.6,26.4c0.2,0,0.3,0,0.4-0.1l-0.2,1.3c-0.5,0.1-0.8,0.2-1.2,0.2c-0.9,0-1.4-0.4-1.4-1.2
			c0-0.2,0-0.3,0-0.5l0.1-0.6l0.1-0.4l0.8-4.3H33L32.7,22h0.9l-0.2,1.4h-0.9l-0.5,2.4c0,0.1,0,0.2,0,0.2
			C32,26.3,32.2,26.4,32.6,26.4z M36.8,23.6c-0.8,0-1.1,0.6-1.7,4.1h-1.7l1-5.7H36l-0.2,0.9c0.5-0.7,0.9-0.9,1.5-0.9
			c0.1,0,0.1,0,0.2,0c0,0,0.1,0,0.1,0c0,0,0,0,0.2,0.1l-0.6,1.6l-0.2,0C36.9,23.6,36.9,23.6,36.8,23.6z M39.9,27.8
			c-2,0-2.7-1.2-2.7-2.6c0-2,1.3-3.4,3.4-3.4c1.8,0,2.7,1.1,2.7,2.6c0,0.4,0,0.4,0,0.7C42.9,27,41.6,27.8,39.9,27.8z M43.4,27.7
			c-0.2,0-0.5-0.2-0.5-0.4c0-0.2,0.2-0.4,0.5-0.4s0.5,0.2,0.5,0.4C43.8,27.5,43.6,27.7,43.4,27.7z"/>
	</g>
</g>
<g>
	<g>
		<path class="st0" d="M43.4,26.9c-0.2,0-0.3,0.2-0.3,0.3c0,0.2,0.2,0.3,0.3,0.3c0.2,0,0.3-0.2,0.3-0.3
			C43.7,27.1,43.6,26.9,43.4,26.9z M43.5,27.4h-0.1l-0.1-0.2h-0.1v0.2h-0.1V27h0.2c0,0,0.1,0,0.1,0c0,0,0,0.1,0,0.1
			c0,0,0,0.1-0.1,0.1L43.5,27.4z"/>
	</g>
</g>
<g>
	<g>
		<path class="st0" d="M43.4,27.1C43.4,27.1,43.4,27.1,43.4,27.1l-0.1,0v0.1L43.4,27.1C43.4,27.2,43.4,27.2,43.4,27.1
			C43.4,27.2,43.4,27.2,43.4,27.1C43.4,27.2,43.4,27.1,43.4,27.1z"/>
	</g>
</g>
<g>
	<g>
		<path class="st0" d="M23.2,23.2c-0.6,0-0.9,0.4-1.1,1l1.9,0c0-0.1,0-0.2,0-0.3C24,23.4,23.7,23.2,23.2,23.2z"/>
	</g>
</g>
<g>
	<g>
		<path class="st0" d="M17.6,25.1c-1,0-1.5,0.3-1.5,0.9c0,0.4,0.2,0.6,0.6,0.6c0.7,0,1.2-0.6,1.2-1.4C17.8,25.1,17.8,25.1,17.6,25.1
			z"/>
	</g>
</g>
<g>
	<g>
		<path class="st0" d="M40.5,23.2c-0.9,0-1.4,1-1.4,1.9c0,0.8,0.4,1.3,1,1.3c0.4,0,1.2-0.5,1.3-1.4c0-0.2,0.1-0.4,0.1-0.7
			C41.4,23.8,41.2,23.2,40.5,23.2z"/>
	</g>
</g>
</svg>
